<?xml version="1.0" standalone="no"?>
<!DOCTYPE svg PUBLIC "-//W3C//DTD SVG 20010904//EN"
 "http://www.w3.org/TR/2001/REC-SVG-20010904/DTD/svg10.dtd">
<svg version="1.0" xmlns="http://www.w3.org/2000/svg"
 width="1020.000000pt" height="1280.000000pt" viewBox="0 0 1020.000000 1280.000000"
 preserveAspectRatio="xMidYMid meet">
<metadata>
Created by potrace 1.15, written by Peter Selinger 2001-2017
</metadata>
<g transform="translate(0.000000,1280.000000) scale(0.100000,-0.100000)"
fill="#000000" stroke="none">
<path d="M3781 12784 c-161 -43 -326 -180 -426 -350 -163 -278 -174 -518 -40
-857 6 -13 -13 -5 -61 26 -93 60 -197 111 -270 133 -90 27 -286 25 -379 -3
-80 -25 -117 -48 -113 -70 2 -9 58 -35 143 -67 174 -66 253 -105 388 -196 111
-74 189 -151 237 -235 53 -93 55 -88 -77 -200 -224 -191 -310 -282 -422 -449
-45 -66 -48 -74 -36 -96 7 -14 34 -83 59 -154 125 -344 305 -1039 391 -1509
46 -252 113 -772 101 -784 -10 -11 -221 285 -343 482 -320 515 -772 1617
-1048 2552 -89 302 -114 363 -151 363 -22 0 -82 -80 -128 -169 -78 -153 -134
-337 -162 -540 -17 -125 -15 -426 5 -606 21 -182 42 -437 38 -442 -15 -14
-373 686 -481 942 -38 88 -106 273 -151 410 -132 400 -151 430 -218 342 -110
-144 -167 -409 -167 -774 0 -417 110 -856 319 -1270 23 -46 39 -83 37 -83 -10
0 -422 321 -544 423 -197 165 -238 182 -269 108 -36 -84 14 -311 102 -465 49
-87 208 -301 320 -431 243 -283 532 -549 1018 -938 396 -317 741 -550 1057
-713 l75 -39 -120 -3 c-165 -4 -279 17 -504 92 -242 82 -396 143 -556 221
-170 83 -287 157 -514 328 -209 157 -247 179 -261 157 -31 -49 112 -411 218
-550 61 -81 158 -172 224 -209 l50 -29 -58 -11 c-236 -45 -346 -85 -458 -165
-74 -52 -188 -171 -237 -246 -83 -126 -159 -312 -159 -389 0 -35 3 -41 20 -41
30 0 59 17 260 150 187 123 272 164 419 200 97 25 268 40 349 33 l64 -6 -57
-30 c-33 -18 -84 -60 -123 -102 -137 -147 -202 -347 -217 -665 -13 -267 21
-257 254 74 154 219 231 309 329 388 146 116 412 213 412 150 0 -30 84 -194
148 -290 103 -152 239 -310 441 -512 385 -385 783 -696 1174 -920 l127 -73 -5
-81 c-3 -45 -15 -315 -25 -601 -30 -776 -44 -1134 -80 -2055 -5 -135 -12 -312
-15 -395 -11 -288 -15 -337 -32 -331 -32 13 -216 36 -280 36 -84 0 -134 -13
-173 -46 -40 -34 -42 -93 -5 -130 38 -38 138 -80 281 -117 l127 -34 59 -169
c33 -93 84 -254 114 -359 31 -104 69 -216 85 -247 72 -143 181 -188 260 -108
24 24 29 37 29 77 -1 116 -94 413 -217 692 -4 10 -2 13 8 8 283 -123 734 -278
828 -284 84 -6 104 7 103 66 -1 59 -34 98 -145 171 -132 88 -358 194 -641 301
-71 27 -130 50 -132 51 -1 2 4 58 11 125 25 227 49 560 75 1048 6 105 15 264
20 355 11 166 42 731 81 1450 11 212 22 390 24 397 3 9 19 6 57 -11 69 -30
303 -109 398 -135 168 -44 400 -81 512 -81 l58 0 0 -152 c0 -84 -5 -439 -10
-788 -5 -349 -12 -948 -16 -1330 -4 -382 -8 -701 -8 -707 -2 -9 -39 -14 -132
-18 -280 -11 -433 -54 -484 -137 -60 -98 14 -148 250 -169 63 -5 169 -9 235
-8 l120 1 61 -65 c34 -37 137 -164 230 -284 299 -386 410 -475 512 -413 49 30
74 77 67 125 -14 93 -125 262 -309 466 l-95 107 42 -10 c137 -31 441 -72 657
-88 169 -13 229 -4 263 42 18 24 19 32 8 67 -19 64 -94 110 -268 165 -154 49
-434 109 -676 145 -71 11 -131 22 -134 25 -3 3 0 96 6 208 6 112 14 241 16
288 2 47 9 567 15 1155 6 589 13 1147 16 1242 l6 171 91 32 c223 78 377 179
578 380 181 181 340 395 504 677 26 46 51 80 55 78 5 -3 27 -40 50 -83 80
-146 313 -527 435 -712 138 -208 266 -381 380 -515 99 -117 345 -365 416 -420
103 -81 235 -140 352 -160 52 -8 105 10 113 40 7 28 4 33 -107 211 -83 133
-319 539 -319 549 0 2 51 -29 114 -70 449 -296 963 -451 1430 -432 196 8 355
52 390 109 20 32 -33 68 -289 193 -320 156 -521 275 -825 489 -237 166 -354
256 -334 256 12 0 90 -16 175 -35 85 -19 222 -51 304 -69 83 -19 197 -40 255
-47 149 -17 384 -6 530 24 207 44 361 119 334 164 -15 24 -122 81 -294 155
-199 86 -810 392 -1063 533 -416 231 -768 453 -1013 637 -127 96 -386 319
-440 379 l-22 24 44 110 c103 259 217 642 273 920 40 198 90 525 150 980 60
454 94 974 107 1630 8 411 13 387 -105 506 -77 76 -197 163 -326 234 -40 22
-109 75 -161 124 -217 204 -484 351 -639 351 -33 0 -77 -5 -98 -11 -50 -13
-103 -61 -118 -106 -11 -33 -13 -35 -48 -29 -20 3 -178 24 -351 48 l-315 42
-315 0 c-414 0 -747 -32 -1247 -120 -112 -19 -207 -33 -212 -30 -5 3 -14 26
-20 50 -36 145 19 310 156 469 118 137 256 232 456 316 42 18 47 23 38 40 -38
71 -334 76 -506 9 -126 -49 -277 -184 -370 -331 -45 -72 -50 -76 -58 -55 -14
35 0 402 17 483 27 119 70 212 170 362 26 39 46 80 44 90 -4 24 -73 28 -147 7z"/>
</g>
</svg>
